…
``` r
colnames(individual_domain)
```

    ## [1] "year"         "siteID"       "individualID" "plantStatus"  "stemDiameter"
    ## [6] "domainID"

We can also see that all rows for a siteID share the same domainID.

``` r
individual_domain |> filter(siteID == "ORNL") |> select(siteID, individualID, domainID)
```

    ## # A tibble: 12,371 × 3
    ##    siteID individualID             domainID
    ##    <chr>  <chr>                    <chr>   
    ##  1 ORNL   NEON.PLA.D07.ORNL.01675  D07     
    ##  2 ORNL   NEON.PLA.D07.ORNL.01672  D07     
    ##  3 ORNL   NEON.PLA.D07.ORNL.01588  D07     
    ##  4 ORNL   NEON.PLA.D07.ORNL.01568  D07     
    ##  5 ORNL   NEON.PLA.D07.ORNL.01635  D07     
    ##  6 ORNL   NEON.PLA.D07.ORNL.01601  D07     
    ##  7 ORNL   NEON.PLA.D07.ORNL.03051B D07     
    ##  8 ORNL   NEON.PLA.D07.ORNL.01642  D07     
    ##  9 ORNL   NEON.PLA.D07.ORNL.01632  D07     
    ## 10 ORNL   NEON.PLA.D07.ORNL.01679  D07     
    ## # … with 12,361 more rows

### String operations

One addition skill you will need to use the NEON data is the capacity to
filter using part of string. Thus far you have used strings to filter
like the following

``` r
individual_domain |> filter(domainID == "D07") |> 
  select(-plantStatus, -stemDiameter)
```

    ## # A tibble: 28,226 × 4
    ##     year siteID individualID            domainID
    ##    <dbl> <chr>  <chr>                   <chr>   
    ##  1  2022 GRSM   NEON.PLA.D07.GRSM.12664 D07     
    ##  2  2022 GRSM   NEON.PLA.D07.GRSM.12672 D07     
    ##  3  2022 GRSM   NEON.PLA.D07.GRSM.00758 D07     
    ##  4  2022 GRSM   NEON.PLA.D07.GRSM.00749 D07     
    ##  5  2022 GRSM   NEON.PLA.D07.GRSM.00715 D07     
    ##  6  2022 GRSM   NEON.PLA.D07.GRSM.00769 D07     
    ##  7  2022 GRSM   NEON.PLA.D07.GRSM.05020 D07     
    ##  8  2022 GRSM   NEON.PLA.D07.GRSM.03790 D07     
    ##  9  2022 GRSM   NEON.PLA.D07.GRSM.12669 D07     
    ## 10  2022 GRSM   NEON.PLA.D07.GRSM.00738 D07     
    ## # … with 28,216 more rows
…
``` r
individual$individualID[1]
```

    ## [1] "NEON.PLA.D07.GRSM.12664"

You can use the str_detect with a filter to only keep individuals that
are in domain 7 using the string `"D07"`. You can see in the code below
that only siteID from D07 remain the dataset.

``` r
individual_domain |> filter(str_detect(individualID, "D07"))
```

    ## # A tibble: 28,226 × 6
    ##     year siteID individualID            plantStatus              stemD…¹ domai…²
    ##    <dbl> <chr>  <chr>                   <chr>                      <dbl> <chr>  
    ##  1  2022 GRSM   NEON.PLA.D07.GRSM.12664 Live                        NA   D07    
    ##  2  2022 GRSM   NEON.PLA.D07.GRSM.12672 Live, physically damaged    NA   D07    
    ##  3  2022 GRSM   NEON.PLA.D07.GRSM.00758 Live                         1.1 D07    
    ##  4  2022 GRSM   NEON.PLA.D07.GRSM.00749 Live                        NA   D07    
    ##  5  2022 GRSM   NEON.PLA.D07.GRSM.00715 Live                         1.9 D07    
    ##  6  2022 GRSM   NEON.PLA.D07.GRSM.00769 Live, physically damaged    10.9 D07    
    ##  7  2022 GRSM   NEON.PLA.D07.GRSM.05020 Lost, presumed dead         NA   D07    
    ##  8  2022 GRSM   NEON.PLA.D07.GRSM.03790 Live                        NA   D07    
    ##  9  2022 GRSM   NEON.PLA.D07.GRSM.12669 Live                        NA   D07    
    ## 10  2022 GRSM   NEON.PLA.D07.GRSM.00738 Downed                      NA   D07    
    ## # … with 28,216 more rows, and abbreviated variable names ¹​stemDiameter,
    ## #   ²​domainID
The stringr package has many other useful functions for working with
strings. For example,
[`separate_wider_delim`](https://r4ds.hadley.nz/strings.html#sec-string-columns)
can be used to separate the individualID into its components.

``` r
 individual_domain |> 
  separate_wider_delim(
    individualID,
    delim = ".",
    names = c("NEON", "data_type", "new_domainID","new_siteID","individual_tag")
  )
```

    ## # A tibble: 38,845 × 10
    ##     year siteID NEON  data_type new_do…¹ new_s…² indiv…³ plant…⁴ stemD…⁵ domai…⁶
    ##    <dbl> <chr>  <chr> <chr>     <chr>    <chr>   <chr>   <chr>     <dbl> <chr>  
    ##  1  2022 GRSM   NEON  PLA       D07      GRSM    12664   Live       NA   D07    
    ##  2  2022 GRSM   NEON  PLA       D07      GRSM    12672   Live, …    NA   D07    
    ##  3  2022 GRSM   NEON  PLA       D07      GRSM    00758   Live        1.1 D07    
    ##  4  2022 GRSM   NEON  PLA       D07      GRSM    00749   Live       NA   D07    
    ##  5  2022 GRSM   NEON  PLA       D07      GRSM    00715   Live        1.9 D07    
    ##  6  2022 GRSM   NEON  PLA       D07      GRSM    00769   Live, …    10.9 D07    
    ##  7  2022 GRSM   NEON  PLA       D07      GRSM    05020   Lost, …    NA   D07    
    ##  8  2022 GRSM   NEON  PLA       D07      GRSM    03790   Live       NA   D07    
    ##  9  2022 GRSM   NEON  PLA       D07      GRSM    12669   Live       NA   D07    
    ## 10  2022 GRSM   NEON  PLA       D07      GRSM    00738   Downed     NA   D07    
    ## # … with 38,835 more rows, and abbreviated variable names ¹​new_domainID,
    ## #   ²​new_siteID, ³​individual_tag, ⁴​plantStatus, ⁵​stemDiameter, ⁶​domainID

or maybe you just want only the NEON part. You can use `str_sub` to
subset only the first 4 characters of the string. The start is the first
position in the string you want to keep and the end is the last position
you want to keep.

``` r
individual_domain |> 
  mutate(project = str_sub(individualID, start = 1, end = 4)) |> 
  select(project, individualID)
```

    ## # A tibble: 38,845 × 2
    ##    project individualID           
    ##    <chr>   <chr>                  
    ##  1 NEON    NEON.PLA.D07.GRSM.12664
    ##  2 NEON    NEON.PLA.D07.GRSM.12672
    ##  3 NEON    NEON.PLA.D07.GRSM.00758
    ##  4 NEON    NEON.PLA.D07.GRSM.00749
    ##  5 NEON    NEON.PLA.D07.GRSM.00715
    ##  6 NEON    NEON.PLA.D07.GRSM.00769
    ##  7 NEON    NEON.PLA.D07.GRSM.05020
    ##  8 NEON    NEON.PLA.D07.GRSM.03790
    ##  9 NEON    NEON.PLA.D07.GRSM.12669
    ## 10 NEON    NEON.PLA.D07.GRSM.00738
    ## # … with 38,835 more rows
…
